{
    "swagger": "2.0",
    "info": {
        "title": "L5 Swagger API",
        "description": "L5 Swagger API description",
        "contact": {
            "email": "your-email@domain.com"
        },
        "version": "1.0.0"
    },
    "host": "http://my-default-host.com",
    "basePath": "",
    "schemes": [
        "http",
        "https"
    ],
    "paths": {
        "/data": {
            "get": {
                "summary": "Get Testing",
                "operationId": "testing",
                "parameters": [
                    {
                        "name": "data",
                        "in": "path",
                        "required": true,
                        "type": "string"
                    }
                ],
                "responses": {
                    "200": {
                        "description": "successful operation"
                    },
                    "406": {
                        "description": "not acceptable"
                    },
                    "500": {
                        "description": "internal server error"
                    }
                }
            }
        }
    },
    "definitions": {}
}